{
  "project_info": {
    "project_number": "541275822996",
    "project_id": "authentication-b4f15",
    "storage_bucket": "authentication-b4f15.appspot.com"
  },
  "client": [
    {
      "client_info": {
        "mobilesdk_app_id": "1:541275822996:android:c447a112c2b78cbfc04d81",
        "android_client_info": {
          "package_name": "com.example.authentication"
        }
      },
      "oauth_client": [
        {
          "client_id": "541275822996-kaddbihbp6eo8bs7ndt0neoc48i3r1ch.apps.googleusercontent.com",
          "client_type": 3
        }
      ],
      "api_key": [
        {
          "current_key": "AIzaSyB0ltkckuu77TDBL-iKaEUl1ldi4gj3mfI"
        }
      ],
      "services": {
        "appinvite_service": {
          "other_platform_oauth_client": [
            {
              "client_id": "541275822996-kaddbihbp6eo8bs7ndt0neoc48i3r1ch.apps.googleusercontent.com",
              "client_type": 3
            }
          ]
        }
      }
    }
  ],
  "configuration_version": "1"
}